{
  "primary_ips": [
    {
      "id": 7890123,
      "name": "primary_ip-123456",
      "ip": "1.2.3.4"
    },
    {
      "id": 7890123,
      "name": "primary_ip-123456",
      "ip": "1.2.3.5"
    },
    {
      "id": 7890123,
      "name": "primary_ip-123456",
      "ip": "1.2.3.6"
    },
    {
      "id": 7890123,
      "name": "primary_ip-123456",
      "ip": "1.2.3.7"
    },
    {
      "id": 7890123,
      "name": "primary_ip-123456",
      "ip": "1.2.3.8"
    },
    {
      "id": 7890123,
      "name": "primary_ip-123456",
      "ip": "1.2.3.9"
    },
    {
      "id": 7890123,
      "name": "primary_ip-123456",
      "ip": "1.2.3.10"
    },
    {
      "id": 7890123,
      "name": "primary_ip-123456",
      "ip": "1.2.3.11"
    },
    {
      "id": 7890123,
      "name": "primary_ip-123456",
      "ip": "1.2.3.12"
    },
    {
      "id": 7890123,
      "name": "primary_ip-123456",
      "ip": "1.2.3.13"
    },
    {
      "id": 7890123,
      "name": "primary_ip-123456",
      "ip": "1.2.3.14"
    },
    {
      "id": 7890123,
      "name": "primary_ip-123456",
      "ip": "1.2.3.15"
    },
    {
      "id": 7890123,
      "name": "primary_ip-123456",
      "ip": "1.2.3.16"
    },
    {
      "id": 7890123,
      "name": "primary_ip-123456",
      "ip": "1.2.3.17"
    },
    {
      "id": 7890123,
      "name": "primary_ip-123456",
      "ip": "1.2.3.18"
    },
    {
      "id": 7890123,
      "name": "primary_ip-123456",
      "ip": "1.2.3.19"
    },
    {
      "id": 7890123,
      "name": "primary_ip-123456",
      "ip": "1.2.3.20"
    },
    {
      "id": 7890123,
      "name": "primary_ip-123456",
      "ip": "1.2.3.21"
    },
    {
      "id": 7890123,
      "name": "primary_ip-123456",
      "ip": "1.2.3.22"
    },
    {
      "id": 7890123,
      "name": "primary_ip-123456",
      "ip": "1.2.3.23"
    },
    {
      "id": 7890123,
      "name": "primary_ip-123456",
      "ip": "1.2.3.24"
    },
    {
      "id": 7890123,
      "name": "primary_ip-123456",
      "ip": "1.2.3.25"
    },
    {
      "id": 7890123,
      "name": "primary_ip-123456",
      "ip": "1.2.3.26"
    },
    {
      "id": 7890123,
      "name": "primary_ip-123456",
      "ip": "1.2.3.27"
    },
    {
      "id": 7890123,
      "name": "primary_ip-123456",
      "ip": "1.2.3.28"
    }
  ],
  "meta": {
    "pagination": {
      "page": 1,
      "per_page": 25,
      "previous_page": null,
      "next_page": 1,
      "last_page": 2,
      "total_entries": 27
    }
  }
}
