{
  "primary_ips": [
    {
      "id": 7890123,
      "name": "primary_ip-29",
      "ip": "1.2.3.29"
    },
    {
      "id": 7890123,
      "name": "primary_ip-30",
      "ip": "1.2.3.30"
    }
  ],
  "meta": {
    "pagination": {
      "page": 1,
      "per_page": 25,
      "previous_page": 1,
      "next_page": null,
      "last_page": 2,
      "total_entries": 27
    }
  }
}
